<?xml version="1.0" encoding="utf-8"?>
<!-- Generator: Adobe Illustrator 24.2.2, SVG Export Plug-In . SVG Version: 6.00 Build 0)  -->
<svg version="1.1" id="Livello_1" xmlns="http://www.w3.org/2000/svg" xmlns:xlink="http://www.w3.org/1999/xlink" x="0px" y="0px"
	 viewBox="0 0 841.9 595.3" style="enable-background:new 0 0 841.9 595.3;" xml:space="preserve">
<style type="text/css">
	.st0{fill:#92A6BC;}
</style>
<g>
	<path class="st0" d="M343.1,297.2c0,14.7,6.2,27.9,23.7,32.8v-65.6C349.4,269.3,343.1,282.5,343.1,297.2z"/>
	<path class="st0" d="M659.3,220.4L443.6,4L150.4,297.2l293.2,293.2l215.7-215.7c20.2-20.2,31.4-47.5,31.4-76.8
		C691.4,268.6,679.5,240.6,659.3,220.4z M408,262.3v69.8h70.5v-22.3h41.2V330c11.8-3.4,18.8-11.1,21.6-20.2h41.9
		c-4.7,32.3-27,57.5-64.9,63c-6.4,42.4-37.8,65.4-75.4,65.4c-38.4,0-69.1-23-75.4-65.6c-41.9-6.3-65.6-37.7-65.6-75.4
		c0-37.6,23.3-68.2,65.6-74.7c6.3-41.9,37.7-65.6,75.4-65.6c38.4,0,69.1,23,75.4,65.6c37.7,5.6,60,30.7,64.9,62.8h-41.9
		c-2.8-9-9.7-16.7-21.6-20.2v20.2h-41.2v-23H408z"/>
	<path class="st0" d="M442.9,397c15.3,0,27.9-6.2,32.8-23.7h-65.6C415,390.7,428.2,397,442.9,397z"/>
	<path class="st0" d="M442.9,197.4c-14.7,0-27.9,6.2-32.8,23.7h65.6C470.8,203.7,457.6,197.4,442.9,197.4z"/>
</g>
</svg>
